{

  "locators": {

    "loginPage": {
      "Staging": "https://test.com/login",
      "userName": "testuser",
      "password": "testuser]",
      "loginButton": "Inloggen",
      "marketTypeBusiness": ".user-type.mb-1",
      "businessSelection": "a"
    },
    "loginInput": {
      "usernameLocal": "admin",
      "passwordLocal": "admin12345",
      "usernameStaging": "admin",
      "External": "bithy-external",
      "passwordStaging": "admin12345"
    },
    "handsetPage": {
      "flowtypeMobile": "mobile-flow-tab",
      "handset": "a[title='Handset']",
      "handsetList": ".handset-item-wrapper",
      "handsetItem": ".product-item",
      "handsetName": ".product-name",
      "handsetSelect": "a",
      "handsetSearchContainer": ".autocomplete-container",
      "handsetSearchInputContainer": ".input-container",
      "handsetSearchField": "input [type='text'],[placeholder='Zoeken']",
      "handsetSearchInput": "Apple iPhone 11 Pro",
      "handsetSearchSuggestionContainer": "[ng-reflect-klass='suggestions-container']",
      "handsetSearchSuggestionItem": ".item",
      "handsetSelectSubscriptionItem": "[ng-reflect-name='subscriptionItem']",
      "handsetSelectSubscriptionWithDiscount": ".package-with-discount",
      "handsetSelectSubscriptionRadioButton": ".radio-btn",
      "handsetSelectSubscription": "[ng-reflect-name='subscription.code']",
      "handsetSelectCredit": "+",
      "handsetAddToCart": "add-to-cart"

    },
    "cumaPage": {
      "cuma": "a[title='Existing customer']",
      "zipCode": "input [type='text'],[placeholder='bv. 1234AB']",
      "zipCodeNumber": "4507KM",
      "houseNumber": "input [type='text'],[placeholder='bv. 12']",
      "houseNumberInput": "10",
      "search": "Zoek",
      "cumaCustomerListTable": ".table",
      "cumaCustomerList": "tr",
      "cumaCustomerSelection": "td"

    },
    "checkoutStep1": {
      "step1Button": "Volgende"

    },
    "checkoutStep2": {
      "step2Button": "Volgende",
      "noCustomer": "Ok"
    },
    "checkoutStep4": {
      "customerUpdateEmail": "input [type='text'],[placeholder='voorbeeld@gmail.com']",
      "customerEmail": "bithy@binate-solutions.com",
      "customerBank": "input [type='text'],[placeholder='Bijv. NL00BANK01234567890']",
      "customerBankNumber": "NL63RABO0367527944",
      "customerIdSelectOption": ".select-option-default.btn-block",
      "customerIdOption": "option",
      "customerIdPassport": "[ng-reflect-name='id_number']",
      "customerIdPassportNumber": "NN6HBLFP9",
      "customerIdIssue": "input[name='issueDatePicker']",
      "customerIdIssueDate": "09-09-2018",
      "customerIdExpire": "input[name='dp']",
      "customerIdExpireDate": "09-09-2022",
      "customerUpdate": "Volgende",
      "businessCumaRequesterForms": "[ng-reflect-name='contactPersonForms']",
      "businessCumaRequesterFormsDiv": "div",
      "businessCumaRequester": ".requester-item",
      "businessCumaRequesterSelection": ".radio-btn"
    },
    "checkoutStep5": {
      "checkbox1": ".checkBoxCheckmark",
      "checkbox2": "cps_email",
      "step5Button": "Bestelling maken"
    }
  }
}
